{
  "images" : [
    {
      "filename" : "530-5307326_help-my-mother-clipart-hd-png-download.pdf",
      "idiom" : "universal"
    }
  ],
  "info" : {
    "author" : "xcode",
    "version" : 1
  }
}
